Trabalho_D6
…
glimpse(adesao_compl)

## Observations: 27
## Variables: 2
## $ UF <chr> "AC", "AL", "AM", "AP", "BA", "CE", "DF", "ES", "GO", "MA",...
## $ n  <int> 14, 39, 22, 7, 250, 165, 1, 44, 99, 154, 385, 67, 71, 91, 1...

adesao_compl

## # A tibble: 27 x 2
## # Groups:   UF [27]
##    UF        n
##    <chr> <int>
##  1 AC       14
##  2 AL       39
##  3 AM       22
##  4 AP        7
##  5 BA      250
##  6 CE      165
##  7 DF        1
##  8 ES       44
##  9 GO       99
## 10 MA      154
## # ... with 17 more rows
…
Quantidade de municipios com todos os componentes definidos, em sua regiao

adesao_regiao <- adesao_compl %>%
  mutate(Regiao = 
           ifelse(UF %in% c("AC", "RO", "RR", "AM", "PA", "TO", "AP"), "Norte", 
                  ifelse(UF %in% c("MA", "PI", "CE", "RN", "PE", "PB", "SE", "AL", "BA"), "Nordeste",
                         ifelse(UF %in% c("MT", "MS", "GO", "DF"), "Centro-Oeste", 
                                ifelse(UF %in% c("SP", "RJ", "ES", "MG"), "Sudeste", "Sul")))))

adesao_regiao

## # A tibble: 27 x 3
## # Groups:   UF [27]
##    UF        n Regiao      
##    <chr> <int> <chr>       
##  1 AC       14 Norte       
##  2 AL       39 Nordeste    
##  3 AM       22 Norte       
##  4 AP        7 Norte       
##  5 BA      250 Nordeste    
##  6 CE      165 Nordeste    
##  7 DF        1 Centro-Oeste
##  8 ES       44 Sudeste     
##  9 GO       99 Centro-Oeste
## 10 MA      154 Nordeste    
## # ... with 17 more rows
…
